R for Data Science (2e) - 6 Data tidying
…
You can represent the same underlying data in multiple ways. The example below shows the same data organised in four different ways. Each dataset shows the same values of four variables: country, year, population, and cases of TB (tuberculosis), but each dataset organizes the values in a different way.

table1
#> # A tibble: 6 × 4
#>   country      year  cases population
#>   <chr>       <int>  <int>      <int>
#> 1 Afghanistan  1999    745   19987071
#> 2 Afghanistan  2000   2666   20595360
#> 3 Brazil       1999  37737  172006362
#> 4 Brazil       2000  80488  174504898
#> 5 China        1999 212258 1272915272
#> 6 China        2000 213766 1280428583
table2
#> # A tibble: 12 × 4
#>   country      year type           count
#>   <chr>       <int> <chr>          <int>
#> 1 Afghanistan  1999 cases            745
#> 2 Afghanistan  1999 population  19987071
#> 3 Afghanistan  2000 cases           2666
#> 4 Afghanistan  2000 population  20595360
#> 5 Brazil       1999 cases          37737
#> 6 Brazil       1999 population 172006362
#> # … with 6 more rows
#> # ℹ Use `print(n = ...)` to see more rows
…
Most people aren’t familiar with the principles of tidy data, and it’s hard to derive them yourself unless you spend a lot of time working with data.

This means that most real analyses will require at least a little tidying. You’ll begin by figuring out what the underlying variables and observations are. Sometimes this is easy; other times you’ll need to consult with the people who originally generated the data. Next, you’ll pivot your data into a tidy form, with variables in the columns and observations in the rows.

tidyr provides two functions for pivoting data: pivot_longer(), which makes datasets longer by increasing rows and reducing columns, and pivot_wider() which makes datasets wider by increasing columns and reducing rows. The following sections work through the use of pivot_longer() and pivot_wider() to tackle a wide range of realistic datasets. These examples are drawn from vignette("pivot", package = "tidyr"), which you should check out if you want to see more variations and more challenging problems.

Let’s dive in.

6.3.1 Data in column names

The billboard dataset records the billboard rank of songs in the year 2000:

billboard
#> # A tibble: 317 × 79
#>   artist  track date.ent…¹   wk1   wk2   wk3   wk4   wk5   wk6   wk7   wk8   wk9
#>   <chr>   <chr> <date>     <dbl> <dbl> <dbl> <dbl> <dbl> <dbl> <dbl> <dbl> <dbl>
#> 1 2 Pac   Baby… 2000-02-26    87    82    72    77    87    94    99    NA    NA
#> 2 2Ge+her The … 2000-09-02    91    87    92    NA    NA    NA    NA    NA    NA
#> 3 3 Door… Kryp… 2000-04-08    81    70    68    67    66    57    54    53    51
#> 4 3 Door… Loser 2000-10-21    76    76    72    69    67    65    55    59    62
#> 5 504 Bo… Wobb… 2000-04-15    57    34    25    17    17    31    36    49    53
#> 6 98^0    Give… 2000-08-19    51    39    34    26    26    19     2     2     3
#> # … with 311 more rows, 67 more variables: wk10 <dbl>, wk11 <dbl>, wk12 <dbl>,
#> #   wk13 <dbl>, wk14 <dbl>, wk15 <dbl>, wk16 <dbl>, wk17 <dbl>, wk18 <dbl>,
#> #   wk19 <dbl>, wk20 <dbl>, wk21 <dbl>, wk22 <dbl>, wk23 <dbl>, wk24 <dbl>,
#> #   wk25 <dbl>, wk26 <dbl>, wk27 <dbl>, wk28 <dbl>, wk29 <dbl>, wk30 <dbl>,
#> #   wk31 <dbl>, wk32 <dbl>, wk33 <dbl>, wk34 <dbl>, wk35 <dbl>, wk36 <dbl>,
#> #   wk37 <dbl>, wk38 <dbl>, wk39 <dbl>, wk40 <dbl>, wk41 <dbl>, wk42 <dbl>,
#> #   wk43 <dbl>, wk44 <dbl>, wk45 <dbl>, wk46 <dbl>, wk47 <dbl>, wk48 <dbl>, …
#> # ℹ Use `print(n = ...)` to see more rows, and `colnames()` to see all variable names
…
cols specifies which columns need to be pivoted, i.e. which columns aren’t variables. This argument uses the same syntax as select() so here we could use !c(artist, track, date.entered) or starts_with("wk").

names_to names of the variable stored in the column names, here "week".

values_to names the variable stored in the cell values, here "rank".

That gives the following call:

billboard |> 
  pivot_longer(
    cols = starts_with("wk"), 
    names_to = "week", 
    values_to = "rank"
  )
#> # A tibble: 24,092 × 5
#>    artist track                   date.entered week   rank
#>    <chr>  <chr>                   <date>       <chr> <dbl>
#>  1 2 Pac  Baby Don't Cry (Keep... 2000-02-26   wk1      87
#>  2 2 Pac  Baby Don't Cry (Keep... 2000-02-26   wk2      82
#>  3 2 Pac  Baby Don't Cry (Keep... 2000-02-26   wk3      72
#>  4 2 Pac  Baby Don't Cry (Keep... 2000-02-26   wk4      77
#>  5 2 Pac  Baby Don't Cry (Keep... 2000-02-26   wk5      87
#>  6 2 Pac  Baby Don't Cry (Keep... 2000-02-26   wk6      94
#>  7 2 Pac  Baby Don't Cry (Keep... 2000-02-26   wk7      99
#>  8 2 Pac  Baby Don't Cry (Keep... 2000-02-26   wk8      NA
#>  9 2 Pac  Baby Don't Cry (Keep... 2000-02-26   wk9      NA
#> 10 2 Pac  Baby Don't Cry (Keep... 2000-02-26   wk10     NA
#> # … with 24,082 more rows
#> # ℹ Use `print(n = ...)` to see more rows

What happens if a song is in the top 100 for less than 76 weeks? Take 2 Pac’s “Baby Don’t Cry”, for example. The above output suggests that it was only the top 100 for 7 weeks, and all the remaining weeks are filled in with missing values. These NAs don’t really represent unknown observations; they’re forced to exist by the structure of the dataset1, so we can ask pivot_longer to get rid of them by setting values_drop_na = TRUE:

billboard |> 
  pivot_longer(
    cols = starts_with("wk"), 
    names_to = "week", 
    values_to = "rank",
    values_drop_na = TRUE
  )
#> # A tibble: 5,307 × 5
#>   artist track                   date.entered week   rank
#>   <chr>  <chr>                   <date>       <chr> <dbl>
#> 1 2 Pac  Baby Don't Cry (Keep... 2000-02-26   wk1      87
#> 2 2 Pac  Baby Don't Cry (Keep... 2000-02-26   wk2      82
#> 3 2 Pac  Baby Don't Cry (Keep... 2000-02-26   wk3      72
#> 4 2 Pac  Baby Don't Cry (Keep... 2000-02-26   wk4      77
#> 5 2 Pac  Baby Don't Cry (Keep... 2000-02-26   wk5      87
#> 6 2 Pac  Baby Don't Cry (Keep... 2000-02-26   wk6      94
#> # … with 5,301 more rows
#> # ℹ Use `print(n = ...)` to see more rows
…
This data is now tidy, but we could make future computation a bit easier by converting week into a number using mutate() and parse_number(). You’ll learn more about parse_number() and friends in Chapter 8.

billboard_tidy <- billboard |> 
  pivot_longer(
    cols = starts_with("wk"), 
    names_to = "week", 
    values_to = "rank",
    values_drop_na = TRUE
  ) |> 
  mutate(
    week = parse_number(week)
  )
billboard_tidy
#> # A tibble: 5,307 × 5
#>   artist track                   date.entered  week  rank
#>   <chr>  <chr>                   <date>       <dbl> <dbl>
#> 1 2 Pac  Baby Don't Cry (Keep... 2000-02-26       1    87
#> 2 2 Pac  Baby Don't Cry (Keep... 2000-02-26       2    82
#> 3 2 Pac  Baby Don't Cry (Keep... 2000-02-26       3    72
#> 4 2 Pac  Baby Don't Cry (Keep... 2000-02-26       4    77
#> 5 2 Pac  Baby Don't Cry (Keep... 2000-02-26       5    87
#> 6 2 Pac  Baby Don't Cry (Keep... 2000-02-26       6    94
#> # … with 5,301 more rows
#> # ℹ Use `print(n = ...)` to see more rows
…
Figure 6.5: The number of values is preserved (not repeated), but unwound row-by-row.

6.3.3 Many variables in column names

A more challenging situation occurs when you have multiple variables crammed into the column names. For example, take the who2 dataset:

who2 <- who |> 
  rename_with(~ str_remove(.x, "new_?")) |> 
  rename_with(~ str_replace(.x, "([mf])", "\\1_")) |> 
  select(!starts_with("iso"))
who2
#> # A tibble: 7,240 × 58
#>   country   year sp_m_…¹ sp_m_…² sp_m_…³ sp_m_…⁴ sp_m_…⁵ sp_m_…⁶ sp_m_65 sp_f_…⁷
#>   <chr>    <int>   <int>   <int>   <int>   <int>   <int>   <int>   <int>   <int>
#> 1 Afghani…  1980      NA      NA      NA      NA      NA      NA      NA      NA
#> 2 Afghani…  1981      NA      NA      NA      NA      NA      NA      NA      NA
#> 3 Afghani…  1982      NA      NA      NA      NA      NA      NA      NA      NA
#> 4 Afghani…  1983      NA      NA      NA      NA      NA      NA      NA      NA
#> 5 Afghani…  1984      NA      NA      NA      NA      NA      NA      NA      NA
#> 6 Afghani…  1985      NA      NA      NA      NA      NA      NA      NA      NA
#> # … with 7,234 more rows, 48 more variables: sp_f_1524 <int>, sp_f_2534 <int>,
#> #   sp_f_3544 <int>, sp_f_4554 <int>, sp_f_5564 <int>, sp_f_65 <int>,
#> #   sn_m_014 <int>, sn_m_1524 <int>, sn_m_2534 <int>, sn_m_3544 <int>,
#> #   sn_m_4554 <int>, sn_m_5564 <int>, sn_m_65 <int>, sn_f_014 <int>,
#> #   sn_f_1524 <int>, sn_f_2534 <int>, sn_f_3544 <int>, sn_f_4554 <int>,
#> #   sn_f_5564 <int>, sn_f_65 <int>, ep_m_014 <int>, ep_m_1524 <int>,
#> #   ep_m_2534 <int>, ep_m_3544 <int>, ep_m_4554 <int>, ep_m_5564 <int>, …
#> # ℹ Use `print(n = ...)` to see more rows, and `colnames()` to see all variable names
…
who2
#> # A tibble: 7,240 × 58
#>   country   year sp_m_…¹ sp_m_…² sp_m_…³ sp_m_…⁴ sp_m_…⁵ sp_m_…⁶ sp_m_65 sp_f_…⁷
#>   <chr>    <int>   <int>   <int>   <int>   <int>   <int>   <int>   <int>   <int>
#> 1 Afghani…  1980      NA      NA      NA      NA      NA      NA      NA      NA
#> 2 Afghani…  1981      NA      NA      NA      NA      NA      NA      NA      NA
#> 3 Afghani…  1982      NA      NA      NA      NA      NA      NA      NA      NA
#> 4 Afghani…  1983      NA      NA      NA      NA      NA      NA      NA      NA
#> 5 Afghani…  1984      NA      NA      NA      NA      NA      NA      NA      NA
#> 6 Afghani…  1985      NA      NA      NA      NA      NA      NA      NA      NA
#> # … with 7,234 more rows, 48 more variables: sp_f_1524 <int>, sp_f_2534 <int>,
#> #   sp_f_3544 <int>, sp_f_4554 <int>, sp_f_5564 <int>, sp_f_65 <int>,
#> #   sn_m_014 <int>, sn_m_1524 <int>, sn_m_2534 <int>, sn_m_3544 <int>,
#> #   sn_m_4554 <int>, sn_m_5564 <int>, sn_m_65 <int>, sn_f_014 <int>,
#> #   sn_f_1524 <int>, sn_f_2534 <int>, sn_f_3544 <int>, sn_f_4554 <int>,
#> #   sn_f_5564 <int>, sn_f_65 <int>, ep_m_014 <int>, ep_m_1524 <int>,
#> #   ep_m_2534 <int>, ep_m_3544 <int>, ep_m_4554 <int>, ep_m_5564 <int>, …
#> # ℹ Use `print(n = ...)` to see more rows, and `colnames()` to see all variable names

This dataset records information about tuberculosis data collected by the WHO. There are two columns that are already variables and are easy to interpret: country and year. They are followed by 56 columns like sp_m_014, ep_m_4554, and rel_m_3544. If you stare at these columns for long enough, you’ll notice there’s a pattern. Each column name is made up of three pieces separated by _. The first piece, sp/rel/ep, describes the method used for the diagnosis, the second piece, m/f is the gender, and the third piece, 014/1524/2535/3544/4554/65 is the age range.

So in this case we have six variables: two variables are already columns, three variables are contained in the column name, and one variable is in the cell name. This requires two changes to our call to pivot_longer(): names_to gets a vector of column names and names_sep describes how to split the variable name up into pieces:

who2 |> 
  pivot_longer(
    cols = !(country:year),
    names_to = c("diagnosis", "gender", "age"), 
    names_sep = "_",
    values_to = "count"
  )
#> # A tibble: 405,440 × 6
#>   country      year diagnosis gender age   count
#>   <chr>       <int> <chr>     <chr>  <chr> <int>
#> 1 Afghanistan  1980 sp        m      014      NA
#> 2 Afghanistan  1980 sp        m      1524     NA
#> 3 Afghanistan  1980 sp        m      2534     NA
#> 4 Afghanistan  1980 sp        m      3544     NA
#> 5 Afghanistan  1980 sp        m      4554     NA
#> 6 Afghanistan  1980 sp        m      5564     NA
#> # … with 405,434 more rows
#> # ℹ Use `print(n = ...)` to see more rows
…
It’s then up to you to figure out what’s gone wrong with your data and either repair the underlying damage or use your grouping and summarizing skills to ensure that each combination of row and column values only has a single row.

6.4 Untidy data

While pivot_wider() is occasionally useful for making tidy data, its real strength is making untidy data. While that sounds like a bad thing, untidy isn’t a pejorative term: there are many untidy data structures that are extremely useful. Tidy data is a great starting point for most analyses but it’s not the only data format you’ll ever need.

The following sections will show a few examples of pivot_wider() making usefully untidy data for presenting data to other humans, for input to multivariate statistics algorithms, and for pragmatically solving data manipulation challenges.

6.4.1 Presenting data to humans

As you’ve seen, dplyr::count() produces tidy data: it makes one row for each group, with one column for each grouping variable, and one column for the number of observations.

diamonds |> 
  count(clarity, color)
#> # A tibble: 56 × 3
#>   clarity color     n
#>   <ord>   <ord> <int>
#> 1 I1      D        42
#> 2 I1      E       102
#> 3 I1      F       143
#> 4 I1      G       150
#> 5 I1      H       162
#> 6 I1      I        92
#> # … with 50 more rows
#> # ℹ Use `print(n = ...)` to see more rows

This is easy to visualize or summarize further, but it’s not the most compact form for display. You can use pivot_wider() to create a form more suitable for display to other humans:

diamonds |> 
  count(clarity, color) |> 
  pivot_wider(
    names_from = color, 
    values_from = n
  )
#> # A tibble: 8 × 8
#>   clarity     D     E     F     G     H     I     J
#>   <ord>   <int> <int> <int> <int> <int> <int> <int>
#> 1 I1         42   102   143   150   162    92    50
#> 2 SI2      1370  1713  1609  1548  1563   912   479
#> 3 SI1      2083  2426  2131  1976  2275  1424   750
#> 4 VS2      1697  2470  2201  2347  1643  1169   731
#> 5 VS1       705  1281  1364  2148  1169   962   542
#> 6 VVS2      553   991   975  1443   608   365   131
#> # … with 2 more rows
#> # ℹ Use `print(n = ...)` to see more rows
…
Most classical multivariate statistical methods (like dimension reduction and clustering) require your data in matrix form, where each column is a time point, or a location, or a gene, or a species, but definitely not a variable. Sometimes these formats have substantial performance or space advantages, or sometimes they’re just necessary to get closer to the underlying matrix mathematics.

We’re not going to cover these statistical methods here, but it is useful to know how to get your data into the form that they need. For example, let’s imagine you wanted to cluster the gapminder data to find countries that had similar progression of gdpPercap over time. To do this, we need one row for each country and one column for each year:

library(gapminder)

col_year <- gapminder |> 
  mutate(gdpPercap = log10(gdpPercap)) |> 
  pivot_wider(
    id_cols = country, 
    names_from = year,
    values_from = gdpPercap
  ) 
col_year
#> # A tibble: 142 × 13
#>   country  `1952` `1957` `1962` `1967` `1972` `1977` `1982` `1987` `1992` `1997`
#>   <fct>     <dbl>  <dbl>  <dbl>  <dbl>  <dbl>  <dbl>  <dbl>  <dbl>  <dbl>  <dbl>
#> 1 Afghani…   2.89   2.91   2.93   2.92   2.87   2.90   2.99   2.93   2.81   2.80
#> 2 Albania    3.20   3.29   3.36   3.44   3.52   3.55   3.56   3.57   3.40   3.50
#> 3 Algeria    3.39   3.48   3.41   3.51   3.62   3.69   3.76   3.75   3.70   3.68
#> 4 Angola     3.55   3.58   3.63   3.74   3.74   3.48   3.44   3.39   3.42   3.36
#> 5 Argenti…   3.77   3.84   3.85   3.91   3.98   4.00   3.95   3.96   3.97   4.04
#> 6 Austral…   4.00   4.04   4.09   4.16   4.23   4.26   4.29   4.34   4.37   4.43
#> # … with 136 more rows, and 2 more variables: `2002` <dbl>, `2007` <dbl>
#> # ℹ Use `print(n = ...)` to see more rows, and `colnames()` to see all variable names
…
This makes a data frame, because tibbles don’t support row names2.

We’re now ready to cluster with (e.g.) kmeans():

cluster <- stats::kmeans(col_year, centers = 6)

Extracting the data out of this object into a form you can work with is a challenge you’ll need to come back to later in the book, once you’ve learned more about lists. But for now, you can get the clustering membership out with this code:

cluster_id <- cluster$cluster |> 
  enframe() |> 
  rename(country = name, cluster_id = value)
cluster_id
#> # A tibble: 142 × 2
#>   country     cluster_id
#>   <chr>            <int>
#> 1 Afghanistan          4
#> 2 Albania              2
#> 3 Algeria              6
#> 4 Angola               2
#> 5 Argentina            5
#> 6 Australia            1
#> # … with 136 more rows
#> # ℹ Use `print(n = ...)` to see more rows

You could then combine this back with the original data using one of the joins you’ll learn about in Chapter 13.

gapminder |> left_join(cluster_id)
#> Joining, by = "country"
#> # A tibble: 1,704 × 7
#>   country     continent  year lifeExp      pop gdpPercap cluster_id
#>   <chr>       <fct>     <int>   <dbl>    <int>     <dbl>      <int>
#> 1 Afghanistan Asia       1952    28.8  8425333      779.          4
#> 2 Afghanistan Asia       1957    30.3  9240934      821.          4
#> 3 Afghanistan Asia       1962    32.0 10267083      853.          4
#> 4 Afghanistan Asia       1967    34.0 11537966      836.          4
#> 5 Afghanistan Asia       1972    36.1 13079460      740.          4
#> 6 Afghanistan Asia       1977    38.4 14880372      786.          4
#> # … with 1,698 more rows
#> # ℹ Use `print(n = ...)` to see more rows
…
