R for Data Science (2e) - 14 Logical vectors
…
library(tidyverse)
library(nycflights13)

However, as we start to cover more tools, there won’t always be a perfect real example. So we’ll start making up some dummy data with c():

x <- c(1, 2, 3, 5, 7, 11, 13)
x * 2
#> [1]  2  4  6 10 14 22 26

This makes it easier to explain individual functions at the cost of making it harder to see how it might apply to your data problems. Just remember that any manipulation we do to a free-floating vector, you can do to a variable inside data frame with mutate() and friends.

df <- tibble(x)
df |> 
  mutate(y = x *  2)
#> # A tibble: 7 × 2
#>       x     y
#>   <dbl> <dbl>
#> 1     1     2
#> 2     2     4
#> 3     3     6
#> 4     5    10
#> 5     7    14
#> 6    11    22
#> # … with 1 more row
#> # ℹ Use `print(n = ...)` to see more rows

14.2 Comparisons

A very common way to create a logical vector is via a numeric comparison with <, <=, >, >=, !=, and ==. So far, we’ve mostly created logical variables transiently within filter() — they are computed, used, and then thrown away. For example, the following filter finds all daytime departures that leave roughly on time:

flights |> 
  filter(dep_time > 600 & dep_time < 2000 & abs(arr_delay) < 20)
#> # A tibble: 172,286 × 19
#>    year month   day dep_time sched_dep…¹ dep_d…² arr_t…³ sched…⁴ arr_d…⁵ carrier
#>   <int> <int> <int>    <int>       <int>   <dbl>   <int>   <int>   <dbl> <chr>  
#> 1  2013     1     1      601         600       1     844     850      -6 B6     
#> 2  2013     1     1      602         610      -8     812     820      -8 DL     
#> 3  2013     1     1      602         605      -3     821     805      16 MQ     
#> 4  2013     1     1      606         610      -4     858     910     -12 AA     
#> 5  2013     1     1      606         610      -4     837     845      -8 DL     
#> 6  2013     1     1      607         607       0     858     915     -17 UA     
#> # … with 172,280 more rows, 9 more variables: flight <int>, tailnum <chr>,
#> #   origin <chr>, dest <chr>, air_time <dbl>, distance <dbl>, hour <dbl>,
#> #   minute <dbl>, time_hour <dttm>, and abbreviated variable names
#> #   ¹​sched_dep_time, ²​dep_delay, ³​arr_time, ⁴​sched_arr_time, ⁵​arr_delay
#> # ℹ Use `print(n = ...)` to see more rows, and `colnames()` to see all variable names

It’s useful to know that this is a shortcut and you can explicitly create the underlying logical variables with mutate():

flights |> 
  mutate(
    daytime = dep_time > 600 & dep_time < 2000,
    approx_ontime = abs(arr_delay) < 20,
    .keep = "used"
  )
#> # A tibble: 336,776 × 4
#>   dep_time arr_delay daytime approx_ontime
#>      <int>     <dbl> <lgl>   <lgl>        
#> 1      517        11 FALSE   TRUE         
#> 2      533        20 FALSE   FALSE        
#> 3      542        33 FALSE   FALSE        
#> 4      544       -18 FALSE   TRUE         
#> 5      554       -25 FALSE   FALSE        
#> 6      554        12 FALSE   TRUE         
#> # … with 336,770 more rows
#> # ℹ Use `print(n = ...)` to see more rows
…
is.na(x) works with any type of vector and returns TRUE for missing values and FALSE for everything else:

is.na(c(TRUE, NA, FALSE))
#> [1] FALSE  TRUE FALSE
is.na(c(1, NA, 3))
#> [1] FALSE  TRUE FALSE
is.na(c("a", NA, "b"))
#> [1] FALSE  TRUE FALSE

We can use is.na() to find all the rows with a missing dep_time:

flights |> 
  filter(is.na(dep_time))
#> # A tibble: 8,255 × 19
#>    year month   day dep_time sched_dep…¹ dep_d…² arr_t…³ sched…⁴ arr_d…⁵ carrier
#>   <int> <int> <int>    <int>       <int>   <dbl>   <int>   <int>   <dbl> <chr>  
#> 1  2013     1     1       NA        1630      NA      NA    1815      NA EV     
#> 2  2013     1     1       NA        1935      NA      NA    2240      NA AA     
#> 3  2013     1     1       NA        1500      NA      NA    1825      NA AA     
#> 4  2013     1     1       NA         600      NA      NA     901      NA B6     
#> 5  2013     1     2       NA        1540      NA      NA    1747      NA EV     
#> 6  2013     1     2       NA        1620      NA      NA    1746      NA EV     
#> # … with 8,249 more rows, 9 more variables: flight <int>, tailnum <chr>,
#> #   origin <chr>, dest <chr>, air_time <dbl>, distance <dbl>, hour <dbl>,
#> #   minute <dbl>, time_hour <dttm>, and abbreviated variable names
#> #   ¹​sched_dep_time, ²​dep_delay, ³​arr_time, ⁴​sched_arr_time, ⁵​arr_delay
#> # ℹ Use `print(n = ...)` to see more rows, and `colnames()` to see all variable names

is.na() can also be useful in arrange(). arrange() usually puts all the missing values at the end but you can override this default by first sorting by is.na():

flights |> 
  filter(month == 1, day == 1) |> 
  arrange(dep_time)
#> # A tibble: 842 × 19
#>    year month   day dep_time sched_dep…¹ dep_d…² arr_t…³ sched…⁴ arr_d…⁵ carrier
#>   <int> <int> <int>    <int>       <int>   <dbl>   <int>   <int>   <dbl> <chr>  
#> 1  2013     1     1      517         515       2     830     819      11 UA     
#> 2  2013     1     1      533         529       4     850     830      20 UA     
#> 3  2013     1     1      542         540       2     923     850      33 AA     
#> 4  2013     1     1      544         545      -1    1004    1022     -18 B6     
#> 5  2013     1     1      554         600      -6     812     837     -25 DL     
#> 6  2013     1     1      554         558      -4     740     728      12 UA     
#> # … with 836 more rows, 9 more variables: flight <int>, tailnum <chr>,
#> #   origin <chr>, dest <chr>, air_time <dbl>, distance <dbl>, hour <dbl>,
#> #   minute <dbl>, time_hour <dttm>, and abbreviated variable names
#> #   ¹​sched_dep_time, ²​dep_delay, ³​arr_time, ⁴​sched_arr_time, ⁵​arr_delay
#> # ℹ Use `print(n = ...)` to see more rows, and `colnames()` to see all variable names

flights |> 
  filter(month == 1, day == 1) |> 
  arrange(desc(is.na(dep_time)), dep_time)
#> # A tibble: 842 × 19
#>    year month   day dep_time sched_dep…¹ dep_d…² arr_t…³ sched…⁴ arr_d…⁵ carrier
#>   <int> <int> <int>    <int>       <int>   <dbl>   <int>   <int>   <dbl> <chr>  
#> 1  2013     1     1       NA        1630      NA      NA    1815      NA EV     
#> 2  2013     1     1       NA        1935      NA      NA    2240      NA AA     
#> 3  2013     1     1       NA        1500      NA      NA    1825      NA AA     
#> 4  2013     1     1       NA         600      NA      NA     901      NA B6     
#> 5  2013     1     1      517         515       2     830     819      11 UA     
#> 6  2013     1     1      533         529       4     850     830      20 UA     
#> # … with 836 more rows, 9 more variables: flight <int>, tailnum <chr>,
#> #   origin <chr>, dest <chr>, air_time <dbl>, distance <dbl>, hour <dbl>,
#> #   minute <dbl>, time_hour <dttm>, and abbreviated variable names
#> #   ¹​sched_dep_time, ²​dep_delay, ³​arr_time, ⁴​sched_arr_time, ⁵​arr_delay
#> # ℹ Use `print(n = ...)` to see more rows, and `colnames()` to see all variable names
…
To understand what’s going on, think about NA | TRUE. A missing value in a logical vector means that the value could either be TRUE or FALSE. TRUE | TRUE and FALSE | TRUE are both TRUE, so NA | TRUE must also be TRUE. Similar reasoning applies with NA & FALSE.

14.3.2 Order of operations

Note that the order of operations doesn’t work like English. Take the following code finds all flights that departed in November or December:

flights |> 
   filter(month == 11 | month == 12)

You might be tempted to write it like you’d say in English: “find all flights that departed in November or December”:

flights |> 
   filter(month == 11 | 12)
#> # A tibble: 336,776 × 19
#>    year month   day dep_time sched_dep…¹ dep_d…² arr_t…³ sched…⁴ arr_d…⁵ carrier
#>   <int> <int> <int>    <int>       <int>   <dbl>   <int>   <int>   <dbl> <chr>  
#> 1  2013     1     1      517         515       2     830     819      11 UA     
#> 2  2013     1     1      533         529       4     850     830      20 UA     
#> 3  2013     1     1      542         540       2     923     850      33 AA     
#> 4  2013     1     1      544         545      -1    1004    1022     -18 B6     
#> 5  2013     1     1      554         600      -6     812     837     -25 DL     
#> 6  2013     1     1      554         558      -4     740     728      12 UA     
#> # … with 336,770 more rows, 9 more variables: flight <int>, tailnum <chr>,
#> #   origin <chr>, dest <chr>, air_time <dbl>, distance <dbl>, hour <dbl>,
#> #   minute <dbl>, time_hour <dttm>, and abbreviated variable names
#> #   ¹​sched_dep_time, ²​dep_delay, ³​arr_time, ⁴​sched_arr_time, ⁵​arr_delay
#> # ℹ Use `print(n = ...)` to see more rows, and `colnames()` to see all variable names

This code doesn’t error but it also doesn’t seem to have worked. What’s going on? Here R first evaluates month == 11 creating a logical vector, which we call nov. It computes nov | 12. When you use a number with a logical operator it converts everything apart from 0 to TRUE, so this is equivalent to nov | TRUE which will always be TRUE, so every row will be selected:

flights |> 
  mutate(
    nov = month == 11,
    final = nov | 12,
    .keep = "used"
  )
#> # A tibble: 336,776 × 3
#>   month nov   final
#>   <int> <lgl> <lgl>
#> 1     1 FALSE TRUE 
#> 2     1 FALSE TRUE 
#> 3     1 FALSE TRUE 
#> 4     1 FALSE TRUE 
#> 5     1 FALSE TRUE 
#> 6     1 FALSE TRUE 
#> # … with 336,770 more rows
#> # ℹ Use `print(n = ...)` to see more rows
…
flights |> 
  filter(month %in% c(11, 12))

Note that %in% obeys different rules for NA to ==, as NA %in% NA is TRUE.

c(1, 2, NA) == NA
#> [1] NA NA NA
c(1, 2, NA) %in% NA
#> [1] FALSE FALSE  TRUE

This can make for a useful shortcut:

flights |> 
  filter(dep_time %in% c(NA, 0800))
#> # A tibble: 8,803 × 19
#>    year month   day dep_time sched_dep…¹ dep_d…² arr_t…³ sched…⁴ arr_d…⁵ carrier
#>   <int> <int> <int>    <int>       <int>   <dbl>   <int>   <int>   <dbl> <chr>  
#> 1  2013     1     1      800         800       0    1022    1014       8 DL     
#> 2  2013     1     1      800         810     -10     949     955      -6 MQ     
#> 3  2013     1     1       NA        1630      NA      NA    1815      NA EV     
#> 4  2013     1     1       NA        1935      NA      NA    2240      NA AA     
#> 5  2013     1     1       NA        1500      NA      NA    1825      NA AA     
#> 6  2013     1     1       NA         600      NA      NA     901      NA B6     
#> # … with 8,797 more rows, 9 more variables: flight <int>, tailnum <chr>,
#> #   origin <chr>, dest <chr>, air_time <dbl>, distance <dbl>, hour <dbl>,
#> #   minute <dbl>, time_hour <dttm>, and abbreviated variable names
#> #   ¹​sched_dep_time, ²​dep_delay, ³​arr_time, ⁴​sched_arr_time, ⁵​arr_delay
#> # ℹ Use `print(n = ...)` to see more rows, and `colnames()` to see all variable names
…
14.4.1 Logical summaries

There are two main logical summaries: any() and all(). any(x) is the equivalent of |; it’ll return TRUE if there are any TRUE’s in x. all(x) is equivalent of &; it’ll return TRUE only if all values of x are TRUE’s. Like all summary functions, they’ll return NA if there are any missing values present, and as usual you can make the missing values go away with na.rm = TRUE.

For example, we could use all() to find out if there were days where every flight was delayed:

flights |> 
  group_by(year, month, day) |> 
  summarise(
    all_delayed = all(arr_delay >= 0, na.rm = TRUE),
    any_delayed = any(arr_delay >= 0, na.rm = TRUE),
    .groups = "drop"
  )
#> # A tibble: 365 × 5
#>    year month   day all_delayed any_delayed
#>   <int> <int> <int> <lgl>       <lgl>      
#> 1  2013     1     1 FALSE       TRUE       
#> 2  2013     1     2 FALSE       TRUE       
#> 3  2013     1     3 FALSE       TRUE       
#> 4  2013     1     4 FALSE       TRUE       
#> 5  2013     1     5 FALSE       TRUE       
#> 6  2013     1     6 FALSE       TRUE       
#> # … with 359 more rows
#> # ℹ Use `print(n = ...)` to see more rows
…
Figure 14.2: A histogram showing the proportion of delayed flights each day.

Or we could ask how many flights left before 5am, which are often flights that were delayed from the previous day:

flights |> 
  group_by(year, month, day) |> 
  summarise(
    n_early = sum(dep_time < 500, na.rm = TRUE),
    .groups = "drop"
  ) |> 
  arrange(desc(n_early))
#> # A tibble: 365 × 4
#>    year month   day n_early
#>   <int> <int> <int>   <int>
#> 1  2013     6    28      32
#> 2  2013     4    10      30
#> 3  2013     7    28      30
#> 4  2013     3    18      29
#> 5  2013     7     7      29
#> 6  2013     7    10      29
#> # … with 359 more rows
#> # ℹ Use `print(n = ...)` to see more rows
14.4.3 Logical subsetting

There’s one final use for logical vectors in summaries: you can use a logical vector to filter a single variable to a subset of interest. This makes use of the base [ (pronounced subset) operator, which you’ll learn more about this in Section 28.4.5.

Imagine we wanted to look at the average delay just for flights that were actually delayed. One way to do so would be to first filter the flights:

flights |> 
  filter(arr_delay > 0) |> 
  group_by(year, month, day) |> 
  summarise(
    behind = mean(arr_delay),
    n = n(),
    .groups = "drop"
  )
#> # A tibble: 365 × 5
#>    year month   day behind     n
#>   <int> <int> <int>  <dbl> <int>
#> 1  2013     1     1   32.5   461
#> 2  2013     1     2   32.0   535
#> 3  2013     1     3   27.7   460
#> 4  2013     1     4   28.3   297
#> 5  2013     1     5   22.6   238
#> 6  2013     1     6   24.4   381
#> # … with 359 more rows
#> # ℹ Use `print(n = ...)` to see more rows

This works, but what if we wanted to also compute the average delay for flights that arrived early? We’d need to perform a separate filter step, and then figure out how to combine the two data frames together3. Instead you could use [ to perform an inline filtering: arr_delay[arr_delay > 0] will yield only the positive arrival delays.

This leads to:

flights |> 
  group_by(year, month, day) |> 
  summarise(
    behind = mean(arr_delay[arr_delay > 0], na.rm = TRUE),
    ahead = mean(arr_delay[arr_delay < 0], na.rm = TRUE),
    n = n(),
    .groups = "drop"
  )
#> # A tibble: 365 × 6
#>    year month   day behind ahead     n
#>   <int> <int> <int>  <dbl> <dbl> <int>
#> 1  2013     1     1   32.5 -12.5   842
#> 2  2013     1     2   32.0 -14.3   943
#> 3  2013     1     3   27.7 -18.2   914
#> 4  2013     1     4   28.3 -17.0   915
#> 5  2013     1     5   22.6 -14.0   720
#> 6  2013     1     6   24.4 -13.6   832
#> # … with 359 more rows
#> # ℹ Use `print(n = ...)` to see more rows
…
Just like with if_else() you can use variables on both sides of the ~ and you can mix and match variables as needed for your problem. For example, we could use case_when() to provide some human readable labels for the arrival delay:

flights |> 
  mutate(
    status = case_when(
      is.na(arr_delay)      ~ "cancelled",
      arr_delay > 60        ~ "very late",
      arr_delay > 15        ~ "late",
      abs(arr_delay) <= 15  ~ "on time",
      arr_delay < -15       ~ "early",
      arr_delay < -30       ~ "very early",
    ),
    .keep = "used"
  )
#> # A tibble: 336,776 × 2
#>   arr_delay status 
#>       <dbl> <chr>  
#> 1        11 on time
#> 2        20 late   
#> 3        33 late   
#> 4       -18 early  
#> 5       -25 early  
#> 6        12 on time
#> # … with 336,770 more rows
#> # ℹ Use `print(n = ...)` to see more rows
…
Before we move on to the next chapter, we want to show you one last trick that’s useful for grouping data. Sometimes you want to start a new group every time some event occurs. For example, when you’re looking at website data, it’s common to want to break up events into sessions, where a session is defined as a gap of more than x minutes since the last activity.

Here’s some made up data that illustrates the problem. So far computed the time lag between the events, and figured out if there’s a gap that’s big enough to qualify:

events <- tibble(
  time = c(0, 1, 2, 3, 5, 10, 12, 15, 17, 19, 20, 27, 28, 30)
)
events <- events |> 
  mutate(
    diff = time - lag(time, default = first(time)),
    gap = diff >= 5
  )
events
#> # A tibble: 14 × 3
#>    time  diff gap  
#>   <dbl> <dbl> <lgl>
#> 1     0     0 FALSE
#> 2     1     1 FALSE
#> 3     2     1 FALSE
#> 4     3     1 FALSE
#> 5     5     2 FALSE
#> 6    10     5 TRUE 
#> # … with 8 more rows
#> # ℹ Use `print(n = ...)` to see more rows
But how do we go from that logical vector to something that we can group_by()? consecutive_id() comes to the rescue:

consecutive_id <- function(...) {
  ellipsis::check_dots_unnamed()
  data <- vctrs::data_frame(..., .name_repair = "minimal")

  out <- vctrs::vec_identify_runs(data)
  attr(out, "n") <- NULL

  out
}
events |> mutate(
  group = consecutive_id(gap)
)
#> # A tibble: 14 × 4
#>    time  diff gap   group
#>   <dbl> <dbl> <lgl> <int>
#> 1     0     0 FALSE     1
#> 2     1     1 FALSE     1
#> 3     2     1 FALSE     1
#> 4     3     1 FALSE     1
#> 5     5     2 FALSE     1
#> 6    10     5 TRUE      2
#> # … with 8 more rows
#> # ℹ Use `print(n = ...)` to see more rows

consecutive_id() starts a new group every time one of its arguments changes. That makes it useful both here, with logical vectors, and in many other place. For example, inspired by this stackoverflow question, imagine you have a data frame with a bunch of repeated values:

df <- tibble(
  x = c("a", "a", "a", "b", "c", "c", "d", "e", "a", "a", "b", "b"),
  y = c(1, 2, 3, 2, 4, 1, 3, 9, 4, 8, 10, 199)
)
df
#> # A tibble: 12 × 2
#>   x         y
#>   <chr> <dbl>
#> 1 a         1
#> 2 a         2
#> 3 a         3
#> 4 b         2
#> 5 c         4
#> 6 c         1
#> # … with 6 more rows
#> # ℹ Use `print(n = ...)` to see more rows

You want to keep the first row from each repeated x. That’s easier to express with a combination of consecutive_id() and slice_head():

df |> 
  group_by(id = consecutive_id(x)) |> 
  slice_head(n = 1)
#> # A tibble: 7 × 3
#> # Groups:   id [7]
#>   x         y    id
#>   <chr> <dbl> <int>
#> 1 a         1     1
#> 2 b         2     2
#> 3 c         4     3
#> 4 d         3     4
#> 5 e         9     5
#> 6 a         4     6
#> # … with 1 more row
#> # ℹ Use `print(n = ...)` to see more rows
…
