R for Data Science (2e) - 15 Numbers
…
In this chapter, you’ll learn useful tools for creating and manipulating numeric vectors. We’ll start by going into a little more detail of count() before diving into various numeric transformations. You’ll then learn about more general transformations that can be applied to other types of vector, but are often used with numeric vectors. Then you’ll learn about a few more useful summaries and how they can also be used with mutate().

15.1.1 Prerequisites

This chapter mostly uses functions from base R, which are available without loading any packages. But we still need the tidyverse because we’ll use these base R functions inside of tidyverse functions like mutate() and filter(). Like in the last chapter, we’ll use real examples from nycflights13, as well as toy examples made with c() and tribble().

library(tidyverse)
library(nycflights13)

15.1.2 Counts

It’s surprising how much data science you can do with just counts and a little basic arithmetic, so dplyr strives to make counting as easy as possible with count(). This function is great for quick exploration and checks during analysis:

flights |> count(dest)
#> # A tibble: 105 × 2
#>   dest      n
#>   <chr> <int>
#> 1 ABQ     254
#> 2 ACK     265
#> 3 ALB     439
#> 4 ANC       8
#> 5 ATL   17215
#> 6 AUS    2439
#> # … with 99 more rows
#> # ℹ Use `print(n = ...)` to see more rows

(Despite the advice in Chapter 7, we usually put count() on a single line because it’s usually used at the console for a quick check that a calculation is working as expected.)

If you want to see the most common values add sort = TRUE:

flights |> count(dest, sort = TRUE)
#> # A tibble: 105 × 2
#>   dest      n
#>   <chr> <int>
#> 1 ORD   17283
#> 2 ATL   17215
#> 3 LAX   16174
#> 4 BOS   15508
#> 5 MCO   14082
#> 6 CLT   14064
#> # … with 99 more rows
#> # ℹ Use `print(n = ...)` to see more rows

And remember that if you want to see all the values, you can use |> View() or |> print(n = Inf).

You can perform the same computation “by hand” with group_by(), summarise() and n(). This is useful because it allows you to compute other summaries at the same time:

flights |> 
  group_by(dest) |> 
  summarise(
    n = n(),
    delay = mean(arr_delay, na.rm = TRUE)
  )
#> # A tibble: 105 × 3
#>   dest      n delay
#>   <chr> <int> <dbl>
#> 1 ABQ     254  4.38
#> 2 ACK     265  4.85
#> 3 ALB     439 14.4 
#> 4 ANC       8 -2.5 
#> 5 ATL   17215 11.3 
#> 6 AUS    2439  6.02
#> # … with 99 more rows
#> # ℹ Use `print(n = ...)` to see more rows
…
n()
#> Error in `n()`:
#> ! Must be used inside dplyr verbs.

There are a couple of variants of n() that you might find useful:

n_distinct(x) counts the number of distinct (unique) values of one or more variables. For example, we could figure out which destinations are served by the most carriers:

flights |> 
  group_by(dest) |> 
  summarise(
    carriers = n_distinct(carrier)
  ) |> 
  arrange(desc(carriers))
#> # A tibble: 105 × 2
#>   dest  carriers
#>   <chr>    <int>
#> 1 ATL          7
#> 2 BOS          7
#> 3 CLT          7
#> 4 ORD          7
#> 5 TPA          7
#> 6 AUS          6
#> # … with 99 more rows
#> # ℹ Use `print(n = ...)` to see more rows

A weighted count is a sum. For example you could “count” the number of miles each plane flew:

flights |> 
  group_by(tailnum) |> 
  summarise(miles = sum(distance))
#> # A tibble: 4,044 × 2
#>   tailnum  miles
#>   <chr>    <dbl>
#> 1 D942DN    3418
#> 2 N0EGMQ  250866
#> 3 N10156  115966
#> 4 N102UW   25722
#> 5 N103US   24619
#> 6 N104UW   25157
#> # … with 4,038 more rows
#> # ℹ Use `print(n = ...)` to see more rows

Weighted counts are a common problem so count() has a wt argument that does the same thing:

flights |> count(tailnum, wt = distance)
#> # A tibble: 4,044 × 2
#>   tailnum      n
#>   <chr>    <dbl>
#> 1 D942DN    3418
#> 2 N0EGMQ  250866
#> 3 N10156  115966
#> 4 N102UW   25722
#> 5 N103US   24619
#> 6 N104UW   25157
#> # … with 4,038 more rows
#> # ℹ Use `print(n = ...)` to see more rows

You can count missing values by combining sum() and is.na(). In the flights dataset this represents flights that are cancelled:

flights |> 
  group_by(dest) |> 
  summarise(n_cancelled = sum(is.na(dep_time))) 
#> # A tibble: 105 × 2
#>   dest  n_cancelled
#>   <chr>       <int>
#> 1 ABQ             0
#> 2 ACK             0
#> 3 ALB            20
#> 4 ANC             0
#> 5 ATL           317
#> 6 AUS            21
#> # … with 99 more rows
#> # ℹ Use `print(n = ...)` to see more rows
…
Generally, you only want to recycle single numbers (i.e. vectors of length 1), but R will recycle any shorter length vector. It usually (but not always) gives you a warning if the longer vector isn’t a multiple of the shorter:

x * c(1, 2)
#> [1]  1  4 10 40
x * c(1, 2, 3)
#> Warning in x * c(1, 2, 3): longer object length is not a multiple of shorter
#> object length
#> [1]  1  4 30 20

These recycling rules are also applied to logical comparisons (==, <, <=, >, >=, !=) and can lead to a surprising result if you accidentally use == instead of %in% and the data frame has an unfortunate number of rows. For example, take this code which attempts to find all flights in January and February:

flights |> 
  filter(month == c(1, 2))
#> # A tibble: 25,977 × 19
#>    year month   day dep_time sched_dep…¹ dep_d…² arr_t…³ sched…⁴ arr_d…⁵ carrier
#>   <int> <int> <int>    <int>       <int>   <dbl>   <int>   <int>   <dbl> <chr>  
#> 1  2013     1     1      517         515       2     830     819      11 UA     
#> 2  2013     1     1      542         540       2     923     850      33 AA     
#> 3  2013     1     1      554         600      -6     812     837     -25 DL     
#> 4  2013     1     1      555         600      -5     913     854      19 B6     
#> 5  2013     1     1      557         600      -3     838     846      -8 B6     
#> 6  2013     1     1      558         600      -2     849     851      -2 B6     
#> # … with 25,971 more rows, 9 more variables: flight <int>, tailnum <chr>,
#> #   origin <chr>, dest <chr>, air_time <dbl>, distance <dbl>, hour <dbl>,
#> #   minute <dbl>, time_hour <dttm>, and abbreviated variable names
#> #   ¹​sched_dep_time, ²​dep_delay, ³​arr_time, ⁴​sched_arr_time, ⁵​arr_delay
#> # ℹ Use `print(n = ...)` to see more rows, and `colnames()` to see all variable names
…
1:10 %/% 3
#>  [1] 0 0 1 1 1 2 2 2 3 3
1:10 %% 3
#>  [1] 1 2 0 1 2 0 1 2 0 1

Modular arithmetic is handy for the flights dataset, because we can use it to unpack the sched_dep_time variable into and hour and minute:

flights |> 
  mutate(
    hour = sched_dep_time %/% 100,
    minute = sched_dep_time %% 100,
    .keep = "used"
  )
#> # A tibble: 336,776 × 3
#>   sched_dep_time  hour minute
#>            <int> <dbl>  <dbl>
#> 1            515     5     15
#> 2            529     5     29
#> 3            540     5     40
#> 4            545     5     45
#> 5            600     6      0
#> 6            558     5     58
#> # … with 336,770 more rows
#> # ℹ Use `print(n = ...)` to see more rows
…
You can achieve many of the same results by picking the appropriate ties.method argument to base R’s rank(); you’ll probably also want to set na.last = "keep" to keep NAs as NA.

row_number() can also be used without any arguments when inside a dplyr verb. In this case, it’ll give the number of the “current” row. When combined with %% or %/% this can be a useful tool for dividing data into similarly sized groups:

df <- tibble(x = runif(10))

df |> 
  mutate(
    row0 = row_number() - 1,
    three_groups = row0 %% 3,
    three_in_each_group = row0 %/% 3,
  )
#> # A tibble: 10 × 4
#>         x  row0 three_groups three_in_each_group
#>     <dbl> <dbl>        <dbl>               <dbl>
#> 1 0.0808      0            0                   0
#> 2 0.834       1            1                   0
#> 3 0.601       2            2                   0
#> 4 0.157       3            0                   1
#> 5 0.00740     4            1                   1
#> 6 0.466       5            2                   1
#> # … with 4 more rows
#> # ℹ Use `print(n = ...)` to see more rows
…
15.4.2 Minimum, maximum, and quantiles

What if you’re interested in locations other than the center? min() and max() will give you the largest and smallest values. Another powerful tool is quantile() which is a generalization of the median: quantile(x, 0.25) will find the value of x that is greater than 25% of the values, quantile(x, 0.5) is equivalent to the median, and quantile(x, 0.95) will find a value that’s greater than 95% of the values.

For the flights data, you might want to look at the 95% quantile of delays rather than the maximum, because it will ignore the 5% of most delayed flights which can be quite extreme.

flights |>
  group_by(year, month, day) |>
  summarise(
    max = max(dep_delay, na.rm = TRUE),
    q95 = quantile(dep_delay, 0.95, na.rm = TRUE),
    .groups = "drop"
  )
#> # A tibble: 365 × 5
#>    year month   day   max   q95
#>   <int> <int> <int> <dbl> <dbl>
#> 1  2013     1     1   853  70.1
#> 2  2013     1     2   379  85  
#> 3  2013     1     3   291  68  
#> 4  2013     1     4   288  60  
#> 5  2013     1     5   327  41  
#> 6  2013     1     6   202  51  
#> # … with 359 more rows
#> # ℹ Use `print(n = ...)` to see more rows
…
There’s one final type of summary that’s useful for numeric vectors, but also works with every other type of value: extracting a value at specific position. You can do this with the base R [ function, but we’re not going to cover it until Section 28.4.5, because it’s a very powerful and general function. For now we’ll introduce three specialized functions that you can use to extract values at a specified position: first(x), last(x), and nth(x, n).

For example, we can find the first and last departure for each day:

flights |> 
  group_by(year, month, day) |> 
  summarise(
    first_dep = first(dep_time), 
    fifth_dep = nth(dep_time, 5),
    last_dep = last(dep_time)
  )
#> `summarise()` has grouped output by 'year', 'month'. You can override using the
#> `.groups` argument.
#> # A tibble: 365 × 6
#> # Groups:   year, month [12]
#>    year month   day first_dep fifth_dep last_dep
#>   <int> <int> <int>     <int>     <int>    <int>
#> 1  2013     1     1       517       554       NA
#> 2  2013     1     2        42       535       NA
#> 3  2013     1     3        32       520       NA
#> 4  2013     1     4        25       531       NA
#> 5  2013     1     5        14       534       NA
#> 6  2013     1     6        16       555       NA
#> # … with 359 more rows
#> # ℹ Use `print(n = ...)` to see more rows

(These functions currently lack an na.rm argument but will hopefully be fixed by the time you read this book: https://github.com/tidyverse/dplyr/issues/6242).

If you’re familiar with [, you might wonder if you ever need these functions. There are two main reasons: the default argument and the order_by argument. default allows you to set a default value that’s used if the requested position doesn’t exist, e.g. you’re trying to get the 3rd element from a two element group. order_by lets you locally override the existing ordering of the rows, so you can get the element at the position in the ordering by order_by().

Extracting values at positions is complementary to filtering on ranks. Filtering gives you all variables, with each observation in a separate row:

flights |> 
  group_by(year, month, day) |> 
  mutate(r = min_rank(desc(sched_dep_time))) |> 
  filter(r %in% c(1, max(r)))
#> # A tibble: 1,195 × 20
#> # Groups:   year, month, day [365]
#>    year month   day dep_time sched_dep…¹ dep_d…² arr_t…³ sched…⁴ arr_d…⁵ carrier
#>   <int> <int> <int>    <int>       <int>   <dbl>   <int>   <int>   <dbl> <chr>  
#> 1  2013     1     1      517         515       2     830     819      11 UA     
#> 2  2013     1     1     2353        2359      -6     425     445     -20 B6     
#> 3  2013     1     1     2353        2359      -6     418     442     -24 B6     
#> 4  2013     1     1     2356        2359      -3     425     437     -12 B6     
#> 5  2013     1     2       42        2359      43     518     442      36 B6     
#> 6  2013     1     2      458         500      -2     703     650      13 US     
#> # … with 1,189 more rows, 10 more variables: flight <int>, tailnum <chr>,
#> #   origin <chr>, dest <chr>, air_time <dbl>, distance <dbl>, hour <dbl>,
#> #   minute <dbl>, time_hour <dttm>, r <int>, and abbreviated variable names
#> #   ¹​sched_dep_time, ²​dep_delay, ³​arr_time, ⁴​sched_arr_time, ⁵​arr_delay
#> # ℹ Use `print(n = ...)` to see more rows, and `colnames()` to see all variable names
…
