R for Data Science (2e) - 22 Parsing
…
There are a few other general strategies to help you parse files:

In the previous example, we just got unlucky: if we look at just one more row than the default, we can correctly parse in one shot:

challenge2 <- read_csv(readr_example("challenge.csv"), guess_max = 1001)
#> Rows: 2000 Columns: 2
#> ── Column specification ────────────────────────────────────────────────────────
#> Delimiter: ","
#> dbl  (1): x
#> date (1): y
#> 
#> ℹ Use `spec()` to retrieve the full column specification for this data.
#> ℹ Specify the column types or set `show_col_types = FALSE` to quiet this message.
challenge2
#> # A tibble: 2,000 × 2
#>       x y     
#>   <dbl> <date>
#> 1   404 NA    
#> 2  4172 NA    
#> 3  3004 NA    
#> 4   787 NA    
#> 5    37 NA    
#> 6  2332 NA    
#> # … with 1,994 more rows
#> # ℹ Use `print(n = ...)` to see more rows
…
