R for Data Science (2e) - 25 Data rectangling
…
This tibble contains 6 rows, one row for each child of gh_repos. Each row contains a unnamed list with either 26 or 30 rows. Since these are unnamed, we’ll start with an unnest_longer() to put each child in its own row:

repos |> 
  unnest_longer(json)
#> # A tibble: 176 × 1
#>   json             
#>   <list>           
#> 1 <named list [68]>
#> 2 <named list [68]>
#> 3 <named list [68]>
#> 4 <named list [68]>
#> 5 <named list [68]>
#> 6 <named list [68]>
#> # … with 170 more rows
#> # ℹ Use `print(n = ...)` to see more rows

At first glance, it might seem like we haven’t improved the situation: while we have more rows (176 instead of 6) each element of json is still a list. However, there’s an important difference: now each element is a named list so we can use unnamed_wider() to put each element into its own column:

repos |> 
  unnest_longer(json) |> 
  unnest_wider(json) 
#> # A tibble: 176 × 68
#>        id name  full_…¹ owner        private html_…² descr…³ fork  url   forks…⁴
#>     <int> <chr> <chr>   <list>       <lgl>   <chr>   <chr>   <lgl> <chr> <chr>  
#> 1  6.12e7 after gaborc… <named list> FALSE   https:… Run Co… FALSE http… https:…
#> 2  4.05e7 argu… gaborc… <named list> FALSE   https:… Declar… FALSE http… https:…
#> 3  3.64e7 ask   gaborc… <named list> FALSE   https:… Friend… FALSE http… https:…
#> 4  3.49e7 base… gaborc… <named list> FALSE   https:… Do we … FALSE http… https:…
#> 5  6.16e7 cite… gaborc… <named list> FALSE   https:… Test R… TRUE  http… https:…
#> 6  3.39e7 clis… gaborc… <named list> FALSE   https:… Unicod… FALSE http… https:…
#> # … with 170 more rows, 58 more variables: keys_url <chr>,
#> #   collaborators_url <chr>, teams_url <chr>, hooks_url <chr>,
#> #   issue_events_url <chr>, events_url <chr>, assignees_url <chr>,
#> #   branches_url <chr>, tags_url <chr>, blobs_url <chr>, git_tags_url <chr>,
#> #   git_refs_url <chr>, trees_url <chr>, statuses_url <chr>,
#> #   languages_url <chr>, stargazers_url <chr>, contributors_url <chr>,
#> #   subscribers_url <chr>, subscription_url <chr>, commits_url <chr>, …
#> # ℹ Use `print(n = ...)` to see more rows, and `colnames()` to see all variable names
…
Let’s select a few that look interesting:

repos |> 
  unnest_longer(json) |> 
  unnest_wider(json) |> 
  select(id, full_name, owner, description)
#> # A tibble: 176 × 4
#>         id full_name               owner             description                
#>      <int> <chr>                   <list>            <chr>                      
#> 1 61160198 gaborcsardi/after       <named list [17]> Run Code in the Background 
#> 2 40500181 gaborcsardi/argufy      <named list [17]> Declarative function argum…
#> 3 36442442 gaborcsardi/ask         <named list [17]> Friendly CLI interaction i…
#> 4 34924886 gaborcsardi/baseimports <named list [17]> Do we get warnings for und…
#> 5 61620661 gaborcsardi/citest      <named list [17]> Test R package and repo fo…
#> 6 33907457 gaborcsardi/clisymbols  <named list [17]> Unicode symbols for CLI ap…
#> # … with 170 more rows
#> # ℹ Use `print(n = ...)` to see more rows
…
Uh oh, this list column also contains an id column and we can’t have two id columns in the same data frame. Rather than following the advice to use names_repair (which would also work), we’ll instead use names_sep:

repos |> 
  unnest_longer(json) |> 
  unnest_wider(json) |> 
  select(id, full_name, owner, description) |> 
  unnest_wider(owner, names_sep = "_")
#> # A tibble: 176 × 20
#>       id full_…¹ owner…² owner…³ owner…⁴ owner…⁵ owner…⁶ owner…⁷ owner…⁸ owner…⁹
#>    <int> <chr>   <chr>     <int> <chr>   <chr>   <chr>   <chr>   <chr>   <chr>  
#> 1 6.12e7 gaborc… gaborc…  660288 https:… ""      https:… https:… https:… https:…
#> 2 4.05e7 gaborc… gaborc…  660288 https:… ""      https:… https:… https:… https:…
#> 3 3.64e7 gaborc… gaborc…  660288 https:… ""      https:… https:… https:… https:…
#> 4 3.49e7 gaborc… gaborc…  660288 https:… ""      https:… https:… https:… https:…
#> 5 6.16e7 gaborc… gaborc…  660288 https:… ""      https:… https:… https:… https:…
#> 6 3.39e7 gaborc… gaborc…  660288 https:… ""      https:… https:… https:… https:…
#> # … with 170 more rows, 10 more variables: owner_gists_url <chr>,
#> #   owner_starred_url <chr>, owner_subscriptions_url <chr>,
#> #   owner_organizations_url <chr>, owner_repos_url <chr>,
#> #   owner_events_url <chr>, owner_received_events_url <chr>, owner_type <chr>,
#> #   owner_site_admin <lgl>, description <chr>, and abbreviated variable names
#> #   ¹​full_name, ²​owner_login, ³​owner_id, ⁴​owner_avatar_url, ⁵​owner_gravatar_id,
#> #   ⁶​owner_url, ⁷​owner_html_url, ⁸​owner_followers_url, ⁹​owner_following_url
#> # ℹ Use `print(n = ...)` to see more rows, and `colnames()` to see all variable names

This gives another wide dataset, but you can see that owner appears to contain a lot of additional data about the person who “owns” the repository.

25.4.2 Relational data

Nested data is sometimes used to represent data that we’d usually spread out into multiple data frames. For example, take got_chars. Like gh_repos it’s a list, so we start by turning it into a list-column of a tibble:

chars <- tibble(json = got_chars)
chars
#> # A tibble: 30 × 1
#>   json             
#>   <list>           
#> 1 <named list [18]>
#> 2 <named list [18]>
#> 3 <named list [18]>
#> 4 <named list [18]>
#> 5 <named list [18]>
#> 6 <named list [18]>
#> # … with 24 more rows
#> # ℹ Use `print(n = ...)` to see more rows

The json column contains named values, so we’ll start by widening it:

chars |> 
  unnest_wider(json)
#> # A tibble: 30 × 18
#>   url            id name  gender culture born  died  alive titles aliases father
#>   <chr>       <int> <chr> <chr>  <chr>   <chr> <chr> <lgl> <list> <list>  <chr> 
#> 1 https://ww…  1022 Theo… Male   "Ironb… "In … ""    TRUE  <chr>  <chr>   ""    
#> 2 https://ww…  1052 Tyri… Male   ""      "In … ""    TRUE  <chr>  <chr>   ""    
#> 3 https://ww…  1074 Vict… Male   "Ironb… "In … ""    TRUE  <chr>  <chr>   ""    
#> 4 https://ww…  1109 Will  Male   ""      ""    "In … FALSE <chr>  <chr>   ""    
#> 5 https://ww…  1166 Areo… Male   "Norvo… "In … ""    TRUE  <chr>  <chr>   ""    
#> 6 https://ww…  1267 Chett Male   ""      "At … "In … FALSE <chr>  <chr>   ""    
#> # … with 24 more rows, and 7 more variables: mother <chr>, spouse <chr>,
#> #   allegiances <list>, books <list>, povBooks <list>, tvSeries <list>,
#> #   playedBy <list>
#> # ℹ Use `print(n = ...)` to see more rows, and `colnames()` to see all variable names

And selecting a few columns just to make it easier to read:

characters <- chars |> 
  unnest_wider(json) |> 
  select(id, name, gender, culture, born, died, alive)
characters
#> # A tibble: 30 × 7
#>      id name              gender culture    born                     died  alive
#>   <int> <chr>             <chr>  <chr>      <chr>                    <chr> <lgl>
#> 1  1022 Theon Greyjoy     Male   "Ironborn" "In 278 AC or 279 AC, a… ""    TRUE 
#> 2  1052 Tyrion Lannister  Male   ""         "In 273 AC, at Casterly… ""    TRUE 
#> 3  1074 Victarion Greyjoy Male   "Ironborn" "In 268 AC or before, a… ""    TRUE 
#> 4  1109 Will              Male   ""         ""                       "In … FALSE
#> 5  1166 Areo Hotah        Male   "Norvoshi" "In 257 AC or before, a… ""    TRUE 
#> 6  1267 Chett             Male   ""         "At Hag's Mire"          "In … FALSE
#> # … with 24 more rows
#> # ℹ Use `print(n = ...)` to see more rows

There are also many list-columns:

chars |> 
  unnest_wider(json) |> 
  select(id, where(is.list))
#> # A tibble: 30 × 8
#>      id titles    aliases    allegiances books     povBooks  tvSeries  playedBy 
#>   <int> <list>    <list>     <list>      <list>    <list>    <list>    <list>   
#> 1  1022 <chr [3]> <chr [4]>  <chr [1]>   <chr [3]> <chr [2]> <chr [6]> <chr [1]>
#> 2  1052 <chr [2]> <chr [11]> <chr [1]>   <chr [2]> <chr [4]> <chr [6]> <chr [1]>
#> 3  1074 <chr [2]> <chr [1]>  <chr [1]>   <chr [3]> <chr [2]> <chr [1]> <chr [1]>
#> 4  1109 <chr [1]> <chr [1]>  <NULL>      <chr [1]> <chr [1]> <chr [1]> <chr [1]>
#> 5  1166 <chr [1]> <chr [1]>  <chr [1]>   <chr [3]> <chr [2]> <chr [2]> <chr [1]>
#> 6  1267 <chr [1]> <chr [1]>  <NULL>      <chr [2]> <chr [1]> <chr [1]> <chr [1]>
#> # … with 24 more rows
#> # ℹ Use `print(n = ...)` to see more rows

Lets explore the titles column. It’s an unnamed list-column, so we’ll unnest it into rows:

chars |> 
  unnest_wider(json) |> 
  select(id, titles) |> 
  unnest_longer(titles)
#> # A tibble: 60 × 2
#>      id titles                                              
#>   <int> <chr>                                               
#> 1  1022 Prince of Winterfell                                
#> 2  1022 Captain of Sea Bitch                                
#> 3  1022 Lord of the Iron Islands (by law of the green lands)
#> 4  1052 Acting Hand of the King (former)                    
#> 5  1052 Master of Coin (former)                             
#> 6  1074 Lord Captain of the Iron Fleet                      
#> # … with 54 more rows
#> # ℹ Use `print(n = ...)` to see more rows

You might expect to see this data in its own table because it would be easy to join to the characters data as needed. To do so, we’ll do a little cleaning: removing the rows containing empty strings and renaming titles to title since each row now only contains a single title.

titles <- chars |> 
  unnest_wider(json) |> 
  select(id, titles) |> 
  unnest_longer(titles) |> 
  filter(titles != "") |> 
  rename(title = titles)
titles
#> # A tibble: 53 × 2
#>      id title                                               
#>   <int> <chr>                                               
#> 1  1022 Prince of Winterfell                                
#> 2  1022 Captain of Sea Bitch                                
#> 3  1022 Lord of the Iron Islands (by law of the green lands)
#> 4  1052 Acting Hand of the King (former)                    
#> 5  1052 Master of Coin (former)                             
#> 6  1074 Lord Captain of the Iron Fleet                      
#> # … with 47 more rows
#> # ℹ Use `print(n = ...)` to see more rows
…
characters |> 
  semi_join(captains, by = "id") |> 
  select(id, name) |> 
  left_join(titles, by = "id", multiple = "all")
#> # A tibble: 11 × 3
#>      id name              title                                               
#>   <int> <chr>             <chr>                                               
#> 1  1022 Theon Greyjoy     Prince of Winterfell                                
#> 2  1022 Theon Greyjoy     Captain of Sea Bitch                                
#> 3  1022 Theon Greyjoy     Lord of the Iron Islands (by law of the green lands)
#> 4  1074 Victarion Greyjoy Lord Captain of the Iron Fleet                      
#> 5  1074 Victarion Greyjoy Master of the Iron Victory                          
#> 6  1166 Areo Hotah        Captain of the Guard at Sunspear                    
#> # … with 5 more rows
#> # ℹ Use `print(n = ...)` to see more rows

You could imagine creating a table like this for each of the list-columns, then using joins to combine them with the character data as you need it.

25.4.3 A dash of text analysis

What if we wanted to find the most common words in the title? One simple approach starts by using str_split() to break each element of title up into words by spitting on " ":

titles |> 
  mutate(word = str_split(title, " "), .keep = "unused")
#> # A tibble: 53 × 2
#>      id word      
#>   <int> <list>    
#> 1  1022 <chr [3]> 
#> 2  1022 <chr [4]> 
#> 3  1022 <chr [11]>
#> 4  1052 <chr [6]> 
#> 5  1052 <chr [4]> 
#> 6  1074 <chr [6]> 
#> # … with 47 more rows
#> # ℹ Use `print(n = ...)` to see more rows

This creates a unnamed variable length list-column, so we can use unnest_longer():

titles |> 
  mutate(word = str_split(title, " "), .keep = "unused") |> 
  unnest_longer(word)
#> # A tibble: 202 × 2
#>      id word      
#>   <int> <chr>     
#> 1  1022 Prince    
#> 2  1022 of        
#> 3  1022 Winterfell
#> 4  1022 Captain   
#> 5  1022 of        
#> 6  1022 Sea       
#> # … with 196 more rows
#> # ℹ Use `print(n = ...)` to see more rows

And then we can count that column to find the most common:

titles |> 
  mutate(word = str_split(title, " "), .keep = "unused") |> 
  unnest_longer(word) |> 
  count(word, sort = TRUE)
#> # A tibble: 78 × 2
#>   word        n
#>   <chr>   <int>
#> 1 of         41
#> 2 the        29
#> 3 Lord        9
#> 4 Hand        6
#> 5 Captain     5
#> 6 King        5
#> # … with 72 more rows
#> # ℹ Use `print(n = ...)` to see more rows

Some of those words are not very interesting so we could create a list of common words to drop. In text analysis these is commonly called stop words.

stop_words <- tibble(word = c("of", "the"))

titles |> 
  mutate(word = str_split(title, " "), .keep = "unused") |> 
  unnest_longer(word) |> 
  anti_join(stop_words) |> 
  count(word, sort = TRUE)
#> Joining, by = "word"
#> # A tibble: 76 × 2
#>   word         n
#>   <chr>    <int>
#> 1 Lord         9
#> 2 Hand         6
#> 3 Captain      5
#> 4 King         5
#> 5 Princess     5
#> 6 Queen        5
#> # … with 70 more rows
#> # ℹ Use `print(n = ...)` to see more rows
…
The owner column of gh_repo contains a lot of duplicated information because each owner can have many repos. Can you construct a owners data frame that contains one row for each owner? (Hint: does distinct() work with list-cols?)

Explain the following code line-by-line. Why is it interesting? Why does it work for got_chars but might not work in general?

tibble(json = got_chars) |> 
  unnest_wider(json) |> 
  select(id, where(is.list)) %>% 
  pivot_longer(
    where(is.list), 
    names_to = "name", 
    values_to = "value"
  ) %>% 
  unnest_longer(value)
#> # A tibble: 486 × 3
#>      id name    value                                               
#>   <int> <chr>   <chr>                                               
#> 1  1022 titles  Prince of Winterfell                                
#> 2  1022 titles  Captain of Sea Bitch                                
#> 3  1022 titles  Lord of the Iron Islands (by law of the green lands)
#> 4  1022 aliases Prince of Fools                                     
#> 5  1022 aliases Theon Turncloak                                     
#> 6  1022 aliases Reek                                                
#> # … with 480 more rows
#> # ℹ Use `print(n = ...)` to see more rows
…
