R for Data Science (2e) - 31 R Markdown
…
In RStudio, you can click the “Knit with Parameters” option in the Knit dropdown menu to set parameters, render, and preview the report in a single user friendly step. You can customise the dialog by setting other options in the header. See http://rmarkdown.rstudio.com/developer_parameterized_reports.html#parameter_user_interfaces for more details.

Alternatively, if you need to produce many such parameterised reports, you can call rmarkdown::render() with a list of params:

rmarkdown::render("fuel-economy.Rmd", params = list(my_class = "suv"))

This is particularly powerful in conjunction with purrr:pwalk(). The following example creates a report for each value of class found in mpg. First we create a data frame that has one row for each class, giving the filename of the report and the params:

reports <- tibble(
  class = unique(mpg$class),
  filename = stringr::str_c("fuel-economy-", class, ".html"),
  params = purrr::map(class, ~ list(my_class = .))
)
reports
#> # A tibble: 7 × 3
#>   class   filename                  params          
#>   <chr>   <chr>                     <list>          
#> 1 compact fuel-economy-compact.html <named list [1]>
#> 2 midsize fuel-economy-midsize.html <named list [1]>
#> 3 suv     fuel-economy-suv.html     <named list [1]>
#> 4 2seater fuel-economy-2seater.html <named list [1]>
#> 5 minivan fuel-economy-minivan.html <named list [1]>
#> 6 pickup  fuel-economy-pickup.html  <named list [1]>
#> # … with 1 more row
#> # ℹ Use `print(n = ...)` to see more rows
…
