R for Data Science (2e) - 16 Strings
…
The term “regular expression” is a bit of a mouthful, so most people abbreviate to “regex”6 or “regexp”. To learn about regexes, we’ll start with the simplest function that uses them: str_detect(). It takes a character vector and a pattern, and returns a logical vector that says if the pattern was found at each element of the vector. The following code shows the simplest type of pattern, an exact match.

x <- c("apple", "banana", "pear")
str_detect(x, "e")   # does the word contain an e?
#> [1]  TRUE FALSE  TRUE
str_detect(x, "b")   # does the word contain a b?
#> [1] FALSE  TRUE FALSE
str_detect(x, "ear") # does the word contain "ear"?
#> [1] FALSE FALSE  TRUE

str_detect() returns a logical vector the same length as the first argument, so it pairs well with filter(). For example, this code finds all names that contain a lower-case “x”:

babynames |> filter(str_detect(name, "x"))
#> # A tibble: 16,317 × 5
#>    year sex   name          n      prop
#>   <dbl> <chr> <chr>     <int>     <dbl>
#> 1  1880 F     Roxie        62 0.000635 
#> 2  1880 F     Dixie        15 0.000154 
#> 3  1880 F     Roxanna       9 0.0000922
#> 4  1880 F     Texas         5 0.0000512
#> 5  1880 M     Alexander   211 0.00178  
#> 6  1880 M     Alex        147 0.00124  
#> # … with 16,311 more rows
#> # ℹ Use `print(n = ...)` to see more rows
…
Note that regular expression matches never overlap so str_count() only starts looking for a new match after the end of the last match. For example, in "abababa", how many times will the pattern "aba" match? Regular expressions say two, not three:

str_count("abababa", "aba")
#> [1] 2
str_view_all("abababa", "aba")

It’s natural to use str_count() with mutate(). The following example uses str_count() with character classes to count the number of vowels and consonants in each name.

babynames |> 
  count(name) |> 
  mutate(
    vowels = str_count(name, "[aeiou]"),
    consonants = str_count(name, "[^aeiou]")
  )
#> # A tibble: 97,310 × 4
#>   name          n vowels consonants
#>   <chr>     <int>  <int>      <int>
#> 1 Aaban        10      2          3
#> 2 Aabha         5      2          3
#> 3 Aabid         2      2          3
#> 4 Aabir         1      2          3
#> 5 Aabriella     5      4          5
#> 6 Aada          1      2          2
#> # … with 97,304 more rows
#> # ℹ Use `print(n = ...)` to see more rows
…
Functions that work with the components of strings called code points. Depending on the language involved, this might be a letter (like in most European languages), a syllable (like Japanese), or a logogram (like in Chinese). It might be something more exotic like an accent, or a special symbol used to join two emoji together. But to keep things simple, we’ll call these letters.

16.7.1 Length

str_length() tells you the number of letters in the string:

str_length(c("a", "R for data science", NA))
#> [1]  1 18 NA

You could use this with count() to find the distribution of lengths of US babynames, and then with filter() to look at the longest names10:

babynames |>
  count(length = str_length(name), wt = n)
#> # A tibble: 14 × 2
#>   length        n
#>    <int>    <int>
#> 1      2   338150
#> 2      3  8589596
#> 3      4 48506739
#> 4      5 87011607
#> 5      6 90749404
#> 6      7 72120767
#> # … with 8 more rows
#> # ℹ Use `print(n = ...)` to see more rows

babynames |> 
  filter(str_length(name) == 15) |> 
  count(name, wt = n, sort = TRUE)
#> # A tibble: 34 × 2
#>   name                n
#>   <chr>           <int>
#> 1 Franciscojavier   123
#> 2 Christopherjohn   118
#> 3 Johnchristopher   118
#> 4 Christopherjame   108
#> 5 Christophermich    52
#> 6 Ryanchristopher    45
#> # … with 28 more rows
#> # ℹ Use `print(n = ...)` to see more rows
…
Note that str_sub() won’t fail if the string is too short: it will just return as much as possible:

str_sub("a", 1, 5)
#> [1] "a"

We could use str_sub() with mutate() to find the first and last letter of each name:

babynames |> 
  mutate(
    first = str_sub(name, 1, 1),
    last = str_sub(name, -1, -1)
  )
#> # A tibble: 1,924,665 × 7
#>    year sex   name          n   prop first last 
#>   <dbl> <chr> <chr>     <int>  <dbl> <chr> <chr>
#> 1  1880 F     Mary       7065 0.0724 M     y    
#> 2  1880 F     Anna       2604 0.0267 A     a    
#> 3  1880 F     Emma       2003 0.0205 E     a    
#> 4  1880 F     Elizabeth  1939 0.0199 E     h    
#> 5  1880 F     Minnie     1746 0.0179 M     e    
#> 6  1880 F     Margaret   1578 0.0162 M     t    
#> # … with 1,924,659 more rows
#> # ℹ Use `print(n = ...)` to see more rows
…
