R for Data Science (2e) - 12 Tibbles
…
tribble(
  ~x, ~y, ~z,
  "a", 2, 3.6,
  "b", 1, 8.5
)
#> # A tibble: 2 × 3
#>   x         y     z
#>   <chr> <dbl> <dbl>
#> 1 a         2   3.6
#> 2 b         1   8.5

Finally, if you have a regular data.frame you can turn it into to a tibble with as_tibble():

as_tibble(mtcars)
#> # A tibble: 32 × 11
#>     mpg   cyl  disp    hp  drat    wt  qsec    vs    am  gear  carb
#>   <dbl> <dbl> <dbl> <dbl> <dbl> <dbl> <dbl> <dbl> <dbl> <dbl> <dbl>
#> 1  21       6   160   110  3.9   2.62  16.5     0     1     4     4
#> 2  21       6   160   110  3.9   2.88  17.0     0     1     4     4
#> 3  22.8     4   108    93  3.85  2.32  18.6     1     1     4     1
#> 4  21.4     6   258   110  3.08  3.22  19.4     1     0     3     1
#> 5  18.7     8   360   175  3.15  3.44  17.0     0     0     3     2
#> 6  18.1     6   225   105  2.76  3.46  20.2     1     0     3     1
#> # … with 26 more rows
#> # ℹ Use `print(n = ...)` to see more rows
…
There are two main differences in the usage of a tibble vs. a classic data.frame: printing and subsetting. If these difference cause problems when working with older packages, you can turn a tibble back to a regular data frame with as.data.frame().

12.4.1 Printing

Tibbles have a refined print method that shows only the first 10 rows, and all the columns that fit on screen. This makes it much easier to work with large data. In addition to its name, each column reports its type, a nice feature inspired by str():

tibble(
  a = lubridate::now() + runif(1e3) * 86400,
  b = lubridate::today() + runif(1e3) * 30,
  c = 1:1e3,
  d = runif(1e3),
  e = sample(letters, 1e3, replace = TRUE)
)
#> # A tibble: 1,000 × 5
#>   a                   b              c     d e    
#>   <dttm>              <date>     <int> <dbl> <chr>
#> 1 2022-08-15 00:32:39 2022-08-21     1 0.368 n    
#> 2 2022-08-15 18:37:48 2022-08-26     2 0.612 l    
#> 3 2022-08-15 13:01:28 2022-09-05     3 0.415 p    
#> 4 2022-08-15 02:22:45 2022-09-04     4 0.212 m    
#> 5 2022-08-14 22:47:01 2022-09-01     5 0.733 i    
#> 6 2022-08-15 09:47:58 2022-08-28     6 0.460 n    
#> # … with 994 more rows
#> # ℹ Use `print(n = ...)` to see more rows
…
Tibbles are designed to avoid overwhelming your console when you print large data frames. But sometimes you need more output than the default display. There are a few options that can help.

First, you can explicitly print() the data frame and control the number of rows (n) and the width of the display. width = Inf will display all columns:

library(nycflights13)

flights |> 
  print(n = 10, width = Inf)
#> # A tibble: 336,776 × 19
#>     year month   day dep_time sched_dep_time dep_delay arr_time sched_arr_time
#>    <int> <int> <int>    <int>          <int>     <dbl>    <int>          <int>
#>  1  2013     1     1      517            515         2      830            819
#>  2  2013     1     1      533            529         4      850            830
#>  3  2013     1     1      542            540         2      923            850
#>  4  2013     1     1      544            545        -1     1004           1022
#>  5  2013     1     1      554            600        -6      812            837
#>  6  2013     1     1      554            558        -4      740            728
#>  7  2013     1     1      555            600        -5      913            854
#>  8  2013     1     1      557            600        -3      709            723
#>  9  2013     1     1      557            600        -3      838            846
#> 10  2013     1     1      558            600        -2      753            745
#>    arr_delay carrier flight tailnum origin dest  air_time distance  hour minute
#>        <dbl> <chr>    <int> <chr>   <chr>  <chr>    <dbl>    <dbl> <dbl>  <dbl>
#>  1        11 UA        1545 N14228  EWR    IAH        227     1400     5     15
#>  2        20 UA        1714 N24211  LGA    IAH        227     1416     5     29
#>  3        33 AA        1141 N619AA  JFK    MIA        160     1089     5     40
#>  4       -18 B6         725 N804JB  JFK    BQN        183     1576     5     45
#>  5       -25 DL         461 N668DN  LGA    ATL        116      762     6      0
#>  6        12 UA        1696 N39463  EWR    ORD        150      719     5     58
#>  7        19 B6         507 N516JB  EWR    FLL        158     1065     6      0
#>  8       -14 EV        5708 N829AS  LGA    IAD         53      229     6      0
#>  9        -8 B6          79 N593JB  JFK    MCO        140      944     6      0
#> 10         8 AA         301 N3ALAA  LGA    ORD        138      733     6      0
#>    time_hour          
#>    <dttm>             
#>  1 2013-01-01 05:00:00
#>  2 2013-01-01 05:00:00
#>  3 2013-01-01 05:00:00
#>  4 2013-01-01 05:00:00
#>  5 2013-01-01 06:00:00
#>  6 2013-01-01 05:00:00
#>  7 2013-01-01 06:00:00
#>  8 2013-01-01 06:00:00
#>  9 2013-01-01 06:00:00
#> 10 2013-01-01 06:00:00
#> # … with 336,766 more rows
#> # ℹ Use `print(n = ...)` to see more rows
…
